{
  "configVersion": 2,
  "packages": [
    {
      "name": "args",
<<<<<<< HEAD
      "rootUri": "file:///C:/src/flutter/.pub-cache/hosted/pub.dartlang.org/args-2.3.0",
=======
      "rootUri": "file:///Users/cbrmac/Developer/flutter/.pub-cache/hosted/pub.dartlang.org/args-2.3.0",
>>>>>>> f1850f3bfea8120234b7f8737ed6292cbce9f667
      "packageUri": "lib/",
      "languageVersion": "2.12"
    },
    {
      "name": "async",
<<<<<<< HEAD
      "rootUri": "file:///C:/src/flutter/.pub-cache/hosted/pub.dartlang.org/async-2.8.1",
=======
      "rootUri": "file:///Users/cbrmac/Developer/flutter/.pub-cache/hosted/pub.dartlang.org/async-2.8.1",
>>>>>>> f1850f3bfea8120234b7f8737ed6292cbce9f667
      "packageUri": "lib/",
      "languageVersion": "2.12"
    },
    {
      "name": "boolean_selector",
<<<<<<< HEAD
      "rootUri": "file:///C:/src/flutter/.pub-cache/hosted/pub.dartlang.org/boolean_selector-2.1.0",
=======
      "rootUri": "file:///Users/cbrmac/Developer/flutter/.pub-cache/hosted/pub.dartlang.org/boolean_selector-2.1.0",
>>>>>>> f1850f3bfea8120234b7f8737ed6292cbce9f667
      "packageUri": "lib/",
      "languageVersion": "2.12"
    },
    {
      "name": "characters",
<<<<<<< HEAD
      "rootUri": "file:///C:/src/flutter/.pub-cache/hosted/pub.dartlang.org/characters-1.1.0",
=======
      "rootUri": "file:///Users/cbrmac/Developer/flutter/.pub-cache/hosted/pub.dartlang.org/characters-1.1.0",
>>>>>>> f1850f3bfea8120234b7f8737ed6292cbce9f667
      "packageUri": "lib/",
      "languageVersion": "2.12"
    },
    {
      "name": "charcode",
<<<<<<< HEAD
      "rootUri": "file:///C:/src/flutter/.pub-cache/hosted/pub.dartlang.org/charcode-1.3.1",
=======
      "rootUri": "file:///Users/cbrmac/Developer/flutter/.pub-cache/hosted/pub.dartlang.org/charcode-1.3.1",
>>>>>>> f1850f3bfea8120234b7f8737ed6292cbce9f667
      "packageUri": "lib/",
      "languageVersion": "2.12"
    },
    {
      "name": "clock",
<<<<<<< HEAD
      "rootUri": "file:///C:/src/flutter/.pub-cache/hosted/pub.dartlang.org/clock-1.1.0",
=======
      "rootUri": "file:///Users/cbrmac/Developer/flutter/.pub-cache/hosted/pub.dartlang.org/clock-1.1.0",
>>>>>>> f1850f3bfea8120234b7f8737ed6292cbce9f667
      "packageUri": "lib/",
      "languageVersion": "2.12"
    },
    {
      "name": "collection",
<<<<<<< HEAD
      "rootUri": "file:///C:/src/flutter/.pub-cache/hosted/pub.dartlang.org/collection-1.15.0",
=======
      "rootUri": "file:///Users/cbrmac/Developer/flutter/.pub-cache/hosted/pub.dartlang.org/collection-1.15.0",
>>>>>>> f1850f3bfea8120234b7f8737ed6292cbce9f667
      "packageUri": "lib/",
      "languageVersion": "2.12"
    },
    {
      "name": "cupertino_icons",
<<<<<<< HEAD
      "rootUri": "file:///C:/src/flutter/.pub-cache/hosted/pub.dartlang.org/cupertino_icons-1.0.4",
=======
      "rootUri": "file:///Users/cbrmac/Developer/flutter/.pub-cache/hosted/pub.dartlang.org/cupertino_icons-1.0.4",
>>>>>>> f1850f3bfea8120234b7f8737ed6292cbce9f667
      "packageUri": "lib/",
      "languageVersion": "2.12"
    },
    {
      "name": "dbus",
<<<<<<< HEAD
      "rootUri": "file:///C:/src/flutter/.pub-cache/hosted/pub.dartlang.org/dbus-0.5.6",
=======
      "rootUri": "file:///Users/cbrmac/Developer/flutter/.pub-cache/hosted/pub.dartlang.org/dbus-0.5.6",
>>>>>>> f1850f3bfea8120234b7f8737ed6292cbce9f667
      "packageUri": "lib/",
      "languageVersion": "2.12"
    },
    {
      "name": "fake_async",
<<<<<<< HEAD
      "rootUri": "file:///C:/src/flutter/.pub-cache/hosted/pub.dartlang.org/fake_async-1.2.0",
=======
      "rootUri": "file:///Users/cbrmac/Developer/flutter/.pub-cache/hosted/pub.dartlang.org/fake_async-1.2.0",
>>>>>>> f1850f3bfea8120234b7f8737ed6292cbce9f667
      "packageUri": "lib/",
      "languageVersion": "2.12"
    },
    {
      "name": "ffi",
<<<<<<< HEAD
      "rootUri": "file:///C:/src/flutter/.pub-cache/hosted/pub.dartlang.org/ffi-1.1.2",
=======
      "rootUri": "file:///Users/cbrmac/Developer/flutter/.pub-cache/hosted/pub.dartlang.org/ffi-1.1.2",
>>>>>>> f1850f3bfea8120234b7f8737ed6292cbce9f667
      "packageUri": "lib/",
      "languageVersion": "2.12"
    },
    {
      "name": "file",
<<<<<<< HEAD
      "rootUri": "file:///C:/src/flutter/.pub-cache/hosted/pub.dartlang.org/file-6.1.2",
=======
      "rootUri": "file:///Users/cbrmac/Developer/flutter/.pub-cache/hosted/pub.dartlang.org/file-6.1.2",
>>>>>>> f1850f3bfea8120234b7f8737ed6292cbce9f667
      "packageUri": "lib/",
      "languageVersion": "2.12"
    },
    {
      "name": "firebase_core",
<<<<<<< HEAD
      "rootUri": "file:///C:/src/flutter/.pub-cache/hosted/pub.dartlang.org/firebase_core-1.10.0",
=======
      "rootUri": "file:///Users/cbrmac/Developer/flutter/.pub-cache/hosted/pub.dartlang.org/firebase_core-1.10.0",
>>>>>>> f1850f3bfea8120234b7f8737ed6292cbce9f667
      "packageUri": "lib/",
      "languageVersion": "2.12"
    },
    {
      "name": "firebase_core_platform_interface",
<<<<<<< HEAD
      "rootUri": "file:///C:/src/flutter/.pub-cache/hosted/pub.dartlang.org/firebase_core_platform_interface-4.1.0",
=======
      "rootUri": "file:///Users/cbrmac/Developer/flutter/.pub-cache/hosted/pub.dartlang.org/firebase_core_platform_interface-4.1.0",
>>>>>>> f1850f3bfea8120234b7f8737ed6292cbce9f667
      "packageUri": "lib/",
      "languageVersion": "2.12"
    },
    {
      "name": "firebase_core_web",
<<<<<<< HEAD
      "rootUri": "file:///C:/src/flutter/.pub-cache/hosted/pub.dartlang.org/firebase_core_web-1.2.0",
=======
      "rootUri": "file:///Users/cbrmac/Developer/flutter/.pub-cache/hosted/pub.dartlang.org/firebase_core_web-1.2.0",
>>>>>>> f1850f3bfea8120234b7f8737ed6292cbce9f667
      "packageUri": "lib/",
      "languageVersion": "2.12"
    },
    {
      "name": "firebase_messaging",
<<<<<<< HEAD
      "rootUri": "file:///C:/src/flutter/.pub-cache/hosted/pub.dartlang.org/firebase_messaging-11.1.0",
=======
      "rootUri": "file:///Users/cbrmac/Developer/flutter/.pub-cache/hosted/pub.dartlang.org/firebase_messaging-11.1.0",
>>>>>>> f1850f3bfea8120234b7f8737ed6292cbce9f667
      "packageUri": "lib/",
      "languageVersion": "2.12"
    },
    {
      "name": "firebase_messaging_platform_interface",
<<<<<<< HEAD
      "rootUri": "file:///C:/src/flutter/.pub-cache/hosted/pub.dartlang.org/firebase_messaging_platform_interface-3.0.9",
=======
      "rootUri": "file:///Users/cbrmac/Developer/flutter/.pub-cache/hosted/pub.dartlang.org/firebase_messaging_platform_interface-3.0.9",
>>>>>>> f1850f3bfea8120234b7f8737ed6292cbce9f667
      "packageUri": "lib/",
      "languageVersion": "2.12"
    },
    {
      "name": "firebase_messaging_web",
<<<<<<< HEAD
      "rootUri": "file:///C:/src/flutter/.pub-cache/hosted/pub.dartlang.org/firebase_messaging_web-2.1.0",
=======
      "rootUri": "file:///Users/cbrmac/Developer/flutter/.pub-cache/hosted/pub.dartlang.org/firebase_messaging_web-2.1.0",
>>>>>>> f1850f3bfea8120234b7f8737ed6292cbce9f667
      "packageUri": "lib/",
      "languageVersion": "2.12"
    },
    {
      "name": "flutter",
<<<<<<< HEAD
      "rootUri": "file:///C:/src/flutter/packages/flutter",
=======
      "rootUri": "file:///Users/cbrmac/Developer/flutter/packages/flutter",
>>>>>>> f1850f3bfea8120234b7f8737ed6292cbce9f667
      "packageUri": "lib/",
      "languageVersion": "2.12"
    },
    {
      "name": "flutter_lints",
<<<<<<< HEAD
      "rootUri": "file:///C:/src/flutter/.pub-cache/hosted/pub.dartlang.org/flutter_lints-1.0.4",
=======
      "rootUri": "file:///Users/cbrmac/Developer/flutter/.pub-cache/hosted/pub.dartlang.org/flutter_lints-1.0.4",
>>>>>>> f1850f3bfea8120234b7f8737ed6292cbce9f667
      "packageUri": "lib/",
      "languageVersion": "2.12"
    },
    {
      "name": "flutter_local_notifications",
<<<<<<< HEAD
      "rootUri": "file:///C:/src/flutter/.pub-cache/hosted/pub.dartlang.org/flutter_local_notifications-9.1.4",
=======
      "rootUri": "file:///Users/cbrmac/Developer/flutter/.pub-cache/hosted/pub.dartlang.org/flutter_local_notifications-9.1.4",
>>>>>>> f1850f3bfea8120234b7f8737ed6292cbce9f667
      "packageUri": "lib/",
      "languageVersion": "2.12"
    },
    {
      "name": "flutter_local_notifications_linux",
<<<<<<< HEAD
      "rootUri": "file:///C:/src/flutter/.pub-cache/hosted/pub.dartlang.org/flutter_local_notifications_linux-0.3.0",
=======
      "rootUri": "file:///Users/cbrmac/Developer/flutter/.pub-cache/hosted/pub.dartlang.org/flutter_local_notifications_linux-0.3.0",
>>>>>>> f1850f3bfea8120234b7f8737ed6292cbce9f667
      "packageUri": "lib/",
      "languageVersion": "2.12"
    },
    {
      "name": "flutter_local_notifications_platform_interface",
<<<<<<< HEAD
      "rootUri": "file:///C:/src/flutter/.pub-cache/hosted/pub.dartlang.org/flutter_local_notifications_platform_interface-5.0.0",
=======
      "rootUri": "file:///Users/cbrmac/Developer/flutter/.pub-cache/hosted/pub.dartlang.org/flutter_local_notifications_platform_interface-5.0.0",
>>>>>>> f1850f3bfea8120234b7f8737ed6292cbce9f667
      "packageUri": "lib/",
      "languageVersion": "2.12"
    },
    {
      "name": "flutter_test",
<<<<<<< HEAD
      "rootUri": "file:///C:/src/flutter/packages/flutter_test",
=======
      "rootUri": "file:///Users/cbrmac/Developer/flutter/packages/flutter_test",
>>>>>>> f1850f3bfea8120234b7f8737ed6292cbce9f667
      "packageUri": "lib/",
      "languageVersion": "2.12"
    },
    {
      "name": "flutter_web_plugins",
<<<<<<< HEAD
      "rootUri": "file:///C:/src/flutter/packages/flutter_web_plugins",
=======
      "rootUri": "file:///Users/cbrmac/Developer/flutter/packages/flutter_web_plugins",
>>>>>>> f1850f3bfea8120234b7f8737ed6292cbce9f667
      "packageUri": "lib/",
      "languageVersion": "2.12"
    },
    {
      "name": "js",
<<<<<<< HEAD
      "rootUri": "file:///C:/src/flutter/.pub-cache/hosted/pub.dartlang.org/js-0.6.3",
=======
      "rootUri": "file:///Users/cbrmac/Developer/flutter/.pub-cache/hosted/pub.dartlang.org/js-0.6.3",
>>>>>>> f1850f3bfea8120234b7f8737ed6292cbce9f667
      "packageUri": "lib/",
      "languageVersion": "2.12"
    },
    {
      "name": "lints",
<<<<<<< HEAD
      "rootUri": "file:///C:/src/flutter/.pub-cache/hosted/pub.dartlang.org/lints-1.0.1",
=======
      "rootUri": "file:///Users/cbrmac/Developer/flutter/.pub-cache/hosted/pub.dartlang.org/lints-1.0.1",
>>>>>>> f1850f3bfea8120234b7f8737ed6292cbce9f667
      "packageUri": "lib/",
      "languageVersion": "2.12"
    },
    {
      "name": "matcher",
<<<<<<< HEAD
      "rootUri": "file:///C:/src/flutter/.pub-cache/hosted/pub.dartlang.org/matcher-0.12.10",
=======
      "rootUri": "file:///Users/cbrmac/Developer/flutter/.pub-cache/hosted/pub.dartlang.org/matcher-0.12.10",
>>>>>>> f1850f3bfea8120234b7f8737ed6292cbce9f667
      "packageUri": "lib/",
      "languageVersion": "2.12"
    },
    {
      "name": "meta",
<<<<<<< HEAD
      "rootUri": "file:///C:/src/flutter/.pub-cache/hosted/pub.dartlang.org/meta-1.7.0",
=======
      "rootUri": "file:///Users/cbrmac/Developer/flutter/.pub-cache/hosted/pub.dartlang.org/meta-1.7.0",
>>>>>>> f1850f3bfea8120234b7f8737ed6292cbce9f667
      "packageUri": "lib/",
      "languageVersion": "2.12"
    },
    {
      "name": "path",
<<<<<<< HEAD
      "rootUri": "file:///C:/src/flutter/.pub-cache/hosted/pub.dartlang.org/path-1.8.0",
=======
      "rootUri": "file:///Users/cbrmac/Developer/flutter/.pub-cache/hosted/pub.dartlang.org/path-1.8.0",
>>>>>>> f1850f3bfea8120234b7f8737ed6292cbce9f667
      "packageUri": "lib/",
      "languageVersion": "2.12"
    },
    {
      "name": "pedantic",
<<<<<<< HEAD
      "rootUri": "file:///C:/src/flutter/.pub-cache/hosted/pub.dartlang.org/pedantic-1.11.1",
=======
      "rootUri": "file:///Users/cbrmac/Developer/flutter/.pub-cache/hosted/pub.dartlang.org/pedantic-1.11.1",
>>>>>>> f1850f3bfea8120234b7f8737ed6292cbce9f667
      "packageUri": "lib/",
      "languageVersion": "2.12"
    },
    {
      "name": "petitparser",
<<<<<<< HEAD
      "rootUri": "file:///C:/src/flutter/.pub-cache/hosted/pub.dartlang.org/petitparser-4.4.0",
=======
      "rootUri": "file:///Users/cbrmac/Developer/flutter/.pub-cache/hosted/pub.dartlang.org/petitparser-4.4.0",
>>>>>>> f1850f3bfea8120234b7f8737ed6292cbce9f667
      "packageUri": "lib/",
      "languageVersion": "2.14"
    },
    {
      "name": "platform",
<<<<<<< HEAD
      "rootUri": "file:///C:/src/flutter/.pub-cache/hosted/pub.dartlang.org/platform-3.0.2",
=======
      "rootUri": "file:///Users/cbrmac/Developer/flutter/.pub-cache/hosted/pub.dartlang.org/platform-3.0.2",
>>>>>>> f1850f3bfea8120234b7f8737ed6292cbce9f667
      "packageUri": "lib/",
      "languageVersion": "2.12"
    },
    {
      "name": "plugin_platform_interface",
<<<<<<< HEAD
      "rootUri": "file:///C:/src/flutter/.pub-cache/hosted/pub.dartlang.org/plugin_platform_interface-2.0.2",
=======
      "rootUri": "file:///Users/cbrmac/Developer/flutter/.pub-cache/hosted/pub.dartlang.org/plugin_platform_interface-2.0.2",
>>>>>>> f1850f3bfea8120234b7f8737ed6292cbce9f667
      "packageUri": "lib/",
      "languageVersion": "2.12"
    },
    {
      "name": "process",
<<<<<<< HEAD
      "rootUri": "file:///C:/src/flutter/.pub-cache/hosted/pub.dartlang.org/process-4.2.4",
=======
      "rootUri": "file:///Users/cbrmac/Developer/flutter/.pub-cache/hosted/pub.dartlang.org/process-4.2.4",
>>>>>>> f1850f3bfea8120234b7f8737ed6292cbce9f667
      "packageUri": "lib/",
      "languageVersion": "2.14"
    },
    {
      "name": "sky_engine",
<<<<<<< HEAD
      "rootUri": "file:///C:/src/flutter/bin/cache/pkg/sky_engine",
=======
      "rootUri": "file:///Users/cbrmac/Developer/flutter/bin/cache/pkg/sky_engine",
>>>>>>> f1850f3bfea8120234b7f8737ed6292cbce9f667
      "packageUri": "lib/",
      "languageVersion": "2.12"
    },
    {
      "name": "source_span",
<<<<<<< HEAD
      "rootUri": "file:///C:/src/flutter/.pub-cache/hosted/pub.dartlang.org/source_span-1.8.1",
=======
      "rootUri": "file:///Users/cbrmac/Developer/flutter/.pub-cache/hosted/pub.dartlang.org/source_span-1.8.1",
>>>>>>> f1850f3bfea8120234b7f8737ed6292cbce9f667
      "packageUri": "lib/",
      "languageVersion": "2.12"
    },
    {
      "name": "stack_trace",
<<<<<<< HEAD
      "rootUri": "file:///C:/src/flutter/.pub-cache/hosted/pub.dartlang.org/stack_trace-1.10.0",
=======
      "rootUri": "file:///Users/cbrmac/Developer/flutter/.pub-cache/hosted/pub.dartlang.org/stack_trace-1.10.0",
>>>>>>> f1850f3bfea8120234b7f8737ed6292cbce9f667
      "packageUri": "lib/",
      "languageVersion": "2.12"
    },
    {
      "name": "stream_channel",
<<<<<<< HEAD
      "rootUri": "file:///C:/src/flutter/.pub-cache/hosted/pub.dartlang.org/stream_channel-2.1.0",
=======
      "rootUri": "file:///Users/cbrmac/Developer/flutter/.pub-cache/hosted/pub.dartlang.org/stream_channel-2.1.0",
>>>>>>> f1850f3bfea8120234b7f8737ed6292cbce9f667
      "packageUri": "lib/",
      "languageVersion": "2.12"
    },
    {
      "name": "string_scanner",
<<<<<<< HEAD
      "rootUri": "file:///C:/src/flutter/.pub-cache/hosted/pub.dartlang.org/string_scanner-1.1.0",
=======
      "rootUri": "file:///Users/cbrmac/Developer/flutter/.pub-cache/hosted/pub.dartlang.org/string_scanner-1.1.0",
>>>>>>> f1850f3bfea8120234b7f8737ed6292cbce9f667
      "packageUri": "lib/",
      "languageVersion": "2.12"
    },
    {
      "name": "term_glyph",
<<<<<<< HEAD
      "rootUri": "file:///C:/src/flutter/.pub-cache/hosted/pub.dartlang.org/term_glyph-1.2.0",
=======
      "rootUri": "file:///Users/cbrmac/Developer/flutter/.pub-cache/hosted/pub.dartlang.org/term_glyph-1.2.0",
>>>>>>> f1850f3bfea8120234b7f8737ed6292cbce9f667
      "packageUri": "lib/",
      "languageVersion": "2.12"
    },
    {
      "name": "test_api",
<<<<<<< HEAD
      "rootUri": "file:///C:/src/flutter/.pub-cache/hosted/pub.dartlang.org/test_api-0.4.2",
=======
      "rootUri": "file:///Users/cbrmac/Developer/flutter/.pub-cache/hosted/pub.dartlang.org/test_api-0.4.2",
>>>>>>> f1850f3bfea8120234b7f8737ed6292cbce9f667
      "packageUri": "lib/",
      "languageVersion": "2.12"
    },
    {
      "name": "timezone",
<<<<<<< HEAD
      "rootUri": "file:///C:/src/flutter/.pub-cache/hosted/pub.dartlang.org/timezone-0.8.0",
=======
      "rootUri": "file:///Users/cbrmac/Developer/flutter/.pub-cache/hosted/pub.dartlang.org/timezone-0.8.0",
>>>>>>> f1850f3bfea8120234b7f8737ed6292cbce9f667
      "packageUri": "lib/",
      "languageVersion": "2.12"
    },
    {
      "name": "typed_data",
<<<<<<< HEAD
      "rootUri": "file:///C:/src/flutter/.pub-cache/hosted/pub.dartlang.org/typed_data-1.3.0",
=======
      "rootUri": "file:///Users/cbrmac/Developer/flutter/.pub-cache/hosted/pub.dartlang.org/typed_data-1.3.0",
>>>>>>> f1850f3bfea8120234b7f8737ed6292cbce9f667
      "packageUri": "lib/",
      "languageVersion": "2.12"
    },
    {
      "name": "vector_math",
<<<<<<< HEAD
      "rootUri": "file:///C:/src/flutter/.pub-cache/hosted/pub.dartlang.org/vector_math-2.1.0",
=======
      "rootUri": "file:///Users/cbrmac/Developer/flutter/.pub-cache/hosted/pub.dartlang.org/vector_math-2.1.0",
>>>>>>> f1850f3bfea8120234b7f8737ed6292cbce9f667
      "packageUri": "lib/",
      "languageVersion": "2.12"
    },
    {
      "name": "xdg_directories",
<<<<<<< HEAD
      "rootUri": "file:///C:/src/flutter/.pub-cache/hosted/pub.dartlang.org/xdg_directories-0.2.0",
=======
      "rootUri": "file:///Users/cbrmac/Developer/flutter/.pub-cache/hosted/pub.dartlang.org/xdg_directories-0.2.0",
>>>>>>> f1850f3bfea8120234b7f8737ed6292cbce9f667
      "packageUri": "lib/",
      "languageVersion": "2.12"
    },
    {
      "name": "xml",
<<<<<<< HEAD
      "rootUri": "file:///C:/src/flutter/.pub-cache/hosted/pub.dartlang.org/xml-5.3.1",
=======
      "rootUri": "file:///Users/cbrmac/Developer/flutter/.pub-cache/hosted/pub.dartlang.org/xml-5.3.1",
>>>>>>> f1850f3bfea8120234b7f8737ed6292cbce9f667
      "packageUri": "lib/",
      "languageVersion": "2.14"
    },
    {
      "name": "testnotify",
      "rootUri": "../",
      "packageUri": "lib/",
      "languageVersion": "2.12"
    }
  ],
<<<<<<< HEAD
  "generated": "2021-11-26T02:13:46.309756Z",
=======
  "generated": "2021-11-26T01:42:02.954109Z",
>>>>>>> f1850f3bfea8120234b7f8737ed6292cbce9f667
  "generator": "pub",
  "generatorVersion": "2.14.4"
}
